{
    "name": "PlayerControls",
    "maps": [
        {
            "name": "Gameplay",
            "id": "29500408-bc9e-4532-a903-675688414c3a",
            "actions": [
                {
                    "name": "Movement",
                    "type": "PassThrough",
                    "id": "58be72a5-3c86-41e1-aeeb-0d3204afafa5",
                    "expectedControlType": "Vector2",
                    "processors": "",
                    "interactions": "",
                    "initialStateCheck": false
                },
                {
                    "name": "Jump",
                    "type": "Button",
                    "id": "d7d8ecee-d860-4761-90eb-91273f87fc5c",
                    "expectedControlType": "Button",
                    "processors": "",
                    "interactions": "",
                    "initialStateCheck": false
                },
                {
                    "name": "Interact",
                    "type": "Button",
                    "id": "c11d1671-a9ad-4f5b-a4c3-bb414bf721e6",
                    "expectedControlType": "Button",
                    "processors": "",
                    "interactions": "",
                    "initialStateCheck": false
                },
                {
                    "name": "MousePos",
                    "type": "PassThrough",
                    "id": "a64068e8-d2a6-4e5f-bcb2-b6010ee26390",
                    "expectedControlType": "Vector2",
                    "processors": "",
                    "interactions": "",
                    "initialStateCheck": false
                },
                {
                    "name": "Attack",
                    "type": "Button",
                    "id": "6580fbf0-cbe8-4672-956b-f0d5f4f622f2",
                    "expectedControlType": "Button",
                    "processors": "",
                    "interactions": "",
                    "initialStateCheck": false
                },
                {
                    "name": "Block",
                    "type": "Button",
                    "id": "94720c33-687e-454f-b22e-f4dfd980d25c",
                    "expectedControlType": "Button",
                    "processors": "",
                    "interactions": "",
                    "initialStateCheck": false
                },
                {
                    "name": "InventoryActions",
                    "type": "Button",
                    "id": "7310fce2-44a9-4080-aa1b-f0cd7001099c",
                    "expectedControlType": "Button",
                    "processors": "",
                    "interactions": "",
                    "initialStateCheck": false
                },
                {
                    "name": "Menu",
                    "type": "Button",
                    "id": "f358b0da-38b7-49bf-b1cd-f239477b3008",
                    "expectedControlType": "Button",
                    "processors": "",
                    "interactions": "",
                    "initialStateCheck": false
                }
            ],
            "bindings": [
                {
                    "name": "Keyboard",
                    "id": "2c5c16a9-0777-4cab-b2d4-daafcd6187f9",
                    "path": "2DVector",
                    "interactions": "",
                    "processors": "",
                    "groups": "",
                    "action": "Movement",
                    "isComposite": true,
                    "isPartOfComposite": false
                },
                {
                    "name": "up",
                    "id": "01fbd3ca-d62f-4c53-bf1f-2abea5447f3b",
                    "path": "<Keyboard>/w",
                    "interactions": "",
                    "processors": "",
                    "groups": "",
                    "action": "Movement",
                    "isComposite": false,
                    "isPartOfComposite": true
                },
                {
                    "name": "down",
                    "id": "e24c5618-356d-4ce1-8351-84fe8768cf7d",
                    "path": "<Keyboard>/s",
                    "interactions": "",
                    "processors": "",
                    "groups": "",
                    "action": "Movement",
                    "isComposite": false,
                    "isPartOfComposite": true
                },
                {
                    "name": "left",
                    "id": "72dd374e-5a86-463b-aee6-4a910d601c4a",
                    "path": "<Keyboard>/a",
                    "interactions": "",
                    "processors": "",
                    "groups": "",
                    "action": "Movement",
                    "isComposite": false,
                    "isPartOfComposite": true
                },
                {
                    "name": "right",
                    "id": "7ff6027a-861d-4012-a578-3ceb6bdc930a",
                    "path": "<Keyboard>/d",
                    "interactions": "",
                    "processors": "",
                    "groups": "",
                    "action": "Movement",
                    "isComposite": false,
                    "isPartOfComposite": true
                },
                {
                    "name": "",
                    "id": "bf009dd3-0fef-4279-9f69-dc78a6e50645",
                    "path": "<Keyboard>/e",
                    "interactions": "",
                    "processors": "",
                    "groups": "",
                    "action": "Interact",
                    "isComposite": false,
                    "isPartOfComposite": false
                },
                {
                    "name": "",
                    "id": "efca84ff-2b2d-4915-8ff0-992262d076d6",
                    "path": "<Mouse>/leftButton",
                    "interactions": "",
                    "processors": "",
                    "groups": "",
                    "action": "Attack",
                    "isComposite": false,
                    "isPartOfComposite": false
                },
                {
                    "name": "",
                    "id": "5209c2f0-85ce-4e26-a255-6adfcd8bbf8a",
                    "path": "<Mouse>/rightButton",
                    "interactions": "Hold",
                    "processors": "",
                    "groups": "",
                    "action": "Block",
                    "isComposite": false,
                    "isPartOfComposite": false
                },
                {
                    "name": "",
                    "id": "523eb02b-fb82-45e1-be77-b7d68d1d63ce",
                    "path": "<Mouse>/delta",
                    "interactions": "",
                    "processors": "",
                    "groups": "",
                    "action": "MousePos",
                    "isComposite": false,
                    "isPartOfComposite": false
                },
                {
                    "name": "",
                    "id": "2c2899d6-b863-43f6-bf2e-09ae10951f7d",
                    "path": "<Keyboard>/tab",
                    "interactions": "",
                    "processors": "",
                    "groups": "",
                    "action": "InventoryActions",
                    "isComposite": false,
                    "isPartOfComposite": false
                },
                {
                    "name": "",
                    "id": "56895726-9a31-4789-b3df-fe5c8f3a2b20",
                    "path": "<Keyboard>/space",
                    "interactions": "",
                    "processors": "",
                    "groups": "",
                    "action": "Jump",
                    "isComposite": false,
                    "isPartOfComposite": false
                },
                {
                    "name": "",
                    "id": "f6b94ba5-e8ad-4e8a-a8ba-34e482f9ca61",
                    "path": "<Keyboard>/escape",
                    "interactions": "",
                    "processors": "",
                    "groups": "",
                    "action": "Menu",
                    "isComposite": false,
                    "isPartOfComposite": false
                }
            ]
        }
    ],
    "controlSchemes": []
}