%YAML 1.1
%TAG !u! tag:unity3d.com,2011:
--- !u!1045 &1
EditorBuildSettings:
  m_ObjectHideFlags: 0
  serializedVersion: 2
  m_Scenes:
  - enabled: 1
    path: Assets/Scenes/MainMenu.unity
    guid: b6f9bd949b30adc44942d77dd6eebe82
  - enabled: 1
    path: Assets/Scenes/StartScene.unity
    guid: cda394aea7501e940ac249fae59f7ec9
  - enabled: 1
    path: Assets/Scenes/DungeonScene.unity
    guid: 0e80a04d108d9d048b967cac6cfbec36
  m_configObjects: {}
