Library\Bee\artifacts\mvdfrm\Unity.InputSystem.ref.dll_FD2EC87C14EBE081.mvfrm
Library\Bee\artifacts\mvdfrm\UnityEditor.UI.ref.dll_4C98D3F7040CD4F5.mvfrm
Library\Bee\artifacts\mvdfrm\UnityEngine.UI.ref.dll_08FEAA520A2EFD60.mvfrm
Library\Bee\artifacts\mvdfrm\UnityEditor.Graphs.dll_FFB6F827B62A9557.mvfrm
Library\Bee\artifacts\mvdfrm\UnityEditor.CoreModule.dll_2B9005DBDD8A7025.mvfrm
Library\Bee\artifacts\mvdfrm\UnityEditor.DeviceSimulatorModule.dll_FDB42183AF4BF9AC.mvfrm
Library\Bee\artifacts\mvdfrm\UnityEditor.DiagnosticsModule.dll_867D4FCB2A53E0FA.mvfrm
Library\Bee\artifacts\mvdfrm\UnityEditor.dll_514ADED76E1C6060.mvfrm
Library\Bee\artifacts\mvdfrm\UnityEditor.EditorToolbarModule.dll_458D4B5365FFA9FC.mvfrm
Library\Bee\artifacts\mvdfrm\UnityEditor.GraphViewModule.dll_F0D4534E06F1A991.mvfrm
Library\Bee\artifacts\mvdfrm\UnityEditor.PresetsUIModule.dll_AC3A8C30094A0196.mvfrm
Library\Bee\artifacts\mvdfrm\UnityEditor.QuickSearchModule.dll_118CD0D8832ADD53.mvfrm
Library\Bee\artifacts\mvdfrm\UnityEditor.SceneTemplateModule.dll_692CBC1164EC5434.mvfrm
Library\Bee\artifacts\mvdfrm\UnityEditor.SceneViewModule.dll_2F843655FC14769F.mvfrm
Library\Bee\artifacts\mvdfrm\UnityEditor.TextCoreFontEngineModule.dll_4D22628D90E77403.mvfrm
Library\Bee\artifacts\mvdfrm\UnityEditor.TextCoreTextEngineModule.dll_950A98FF206B2D21.mvfrm
Library\Bee\artifacts\mvdfrm\UnityEditor.UIBuilderModule.dll_455D006A79AA22C5.mvfrm
Library\Bee\artifacts\mvdfrm\UnityEditor.UIElementsModule.dll_3CED776A0CC66F41.mvfrm
Library\Bee\artifacts\mvdfrm\UnityEditor.UIElementsSamplesModule.dll_76A33426BD3F413C.mvfrm
Library\Bee\artifacts\mvdfrm\UnityEditor.UnityConnectModule.dll_B79CEC00216A315B.mvfrm
Library\Bee\artifacts\mvdfrm\UnityEngine.AccessibilityModule.dll_9BD227A865627BD1.mvfrm
Library\Bee\artifacts\mvdfrm\UnityEngine.AIModule.dll_076D69731B222BD9.mvfrm
Library\Bee\artifacts\mvdfrm\UnityEngine.AndroidJNIModule.dll_BB36603D55E5DE17.mvfrm
Library\Bee\artifacts\mvdfrm\UnityEngine.AnimationModule.dll_BF59CF76E14E7E37.mvfrm
Library\Bee\artifacts\mvdfrm\UnityEngine.ARModule.dll_C0E02E76783F8AA2.mvfrm
Library\Bee\artifacts\mvdfrm\UnityEngine.AssetBundleModule.dll_557603C9E5919245.mvfrm
Library\Bee\artifacts\mvdfrm\UnityEngine.AudioModule.dll_4F2EAF37D106F969.mvfrm
Library\Bee\artifacts\mvdfrm\UnityEngine.ClothModule.dll_B6170C32AB23D84D.mvfrm
Library\Bee\artifacts\mvdfrm\UnityEngine.ClusterInputModule.dll_37396115D2F20421.mvfrm
Library\Bee\artifacts\mvdfrm\UnityEngine.ClusterRendererModule.dll_0360E3F51F070730.mvfrm
Library\Bee\artifacts\mvdfrm\UnityEngine.ContentLoadModule.dll_EE8C5D0AB4143A32.mvfrm
Library\Bee\artifacts\mvdfrm\UnityEngine.CoreModule.dll_4EB0D92E858FDB50.mvfrm
Library\Bee\artifacts\mvdfrm\UnityEngine.CrashReportingModule.dll_89F7C99A73BCA0E8.mvfrm
Library\Bee\artifacts\mvdfrm\UnityEngine.DirectorModule.dll_F14AA24FED567D6D.mvfrm
Library\Bee\artifacts\mvdfrm\UnityEngine.dll_83EF25AFCC8FED45.mvfrm
Library\Bee\artifacts\mvdfrm\UnityEngine.DSPGraphModule.dll_F69C03B95FB74E8E.mvfrm
Library\Bee\artifacts\mvdfrm\UnityEngine.GameCenterModule.dll_E583AA581C26CF08.mvfrm
Library\Bee\artifacts\mvdfrm\UnityEngine.GIModule.dll_9FA9B280B6D113F3.mvfrm
Library\Bee\artifacts\mvdfrm\UnityEngine.GridModule.dll_2C21F51C9DE47147.mvfrm
Library\Bee\artifacts\mvdfrm\UnityEngine.HotReloadModule.dll_40A28D7CBC8199B9.mvfrm
Library\Bee\artifacts\mvdfrm\UnityEngine.ImageConversionModule.dll_6F52E1A5A12BBF24.mvfrm
Library\Bee\artifacts\mvdfrm\UnityEngine.IMGUIModule.dll_878E4E9E97388D4A.mvfrm
Library\Bee\artifacts\mvdfrm\UnityEngine.InputLegacyModule.dll_E6BB1EE87D834836.mvfrm
Library\Bee\artifacts\mvdfrm\UnityEngine.InputModule.dll_B5A476E8473F1E0D.mvfrm
Library\Bee\artifacts\mvdfrm\UnityEngine.JSONSerializeModule.dll_FBE9B0E4649DDC5B.mvfrm
Library\Bee\artifacts\mvdfrm\UnityEngine.LocalizationModule.dll_75862B686A6DF71A.mvfrm
Library\Bee\artifacts\mvdfrm\UnityEngine.ParticleSystemModule.dll_DD0A12E6E1CE2C76.mvfrm
Library\Bee\artifacts\mvdfrm\UnityEngine.PerformanceReportingModule.dll_287D23221076C00F.mvfrm
Library\Bee\artifacts\mvdfrm\UnityEngine.Physics2DModule.dll_0BFFBF67824B75CC.mvfrm
Library\Bee\artifacts\mvdfrm\UnityEngine.PhysicsModule.dll_B0071765D6AADB5A.mvfrm
Library\Bee\artifacts\mvdfrm\UnityEngine.ProfilerModule.dll_2390DB8686B0047A.mvfrm
Library\Bee\artifacts\mvdfrm\UnityEngine.PropertiesModule.dll_12BEE9968F123344.mvfrm
Library\Bee\artifacts\mvdfrm\UnityEngine.RuntimeInitializeOnLoadManagerInitializerModule.dll_AB5BD3B1AB8E7E95.mvfrm
Library\Bee\artifacts\mvdfrm\UnityEngine.ScreenCaptureModule.dll_15D15E69790A08BD.mvfrm
Library\Bee\artifacts\mvdfrm\UnityEngine.SharedInternalsModule.dll_F364207B1859BA74.mvfrm
Library\Bee\artifacts\mvdfrm\UnityEngine.SpriteMaskModule.dll_CEB01CE83D966482.mvfrm
Library\Bee\artifacts\mvdfrm\UnityEngine.SpriteShapeModule.dll_6ED731249B33CA4F.mvfrm
Library\Bee\artifacts\mvdfrm\UnityEngine.StreamingModule.dll_73EEBCC730D63575.mvfrm
Library\Bee\artifacts\mvdfrm\UnityEngine.SubstanceModule.dll_5099D1107C293383.mvfrm
Library\Bee\artifacts\mvdfrm\UnityEngine.SubsystemsModule.dll_395D834A0BDE4C95.mvfrm
Library\Bee\artifacts\mvdfrm\UnityEngine.TerrainModule.dll_CA4D92D4AC692448.mvfrm
Library\Bee\artifacts\mvdfrm\UnityEngine.TerrainPhysicsModule.dll_DD84BBB9FB112703.mvfrm
Library\Bee\artifacts\mvdfrm\UnityEngine.TextCoreFontEngineModule.dll_CB81DDE0A3E532CE.mvfrm
Library\Bee\artifacts\mvdfrm\UnityEngine.TextCoreTextEngineModule.dll_136A14523368EBEC.mvfrm
Library\Bee\artifacts\mvdfrm\UnityEngine.TextRenderingModule.dll_3F10D074304188B2.mvfrm
Library\Bee\artifacts\mvdfrm\UnityEngine.TilemapModule.dll_6949FA55C4260551.mvfrm
Library\Bee\artifacts\mvdfrm\UnityEngine.TLSModule.dll_93F43D4596DFC5AE.mvfrm
Library\Bee\artifacts\mvdfrm\UnityEngine.UIElementsModule.dll_3D9BE4B20F0A888C.mvfrm
Library\Bee\artifacts\mvdfrm\UnityEngine.UIModule.dll_02E107A077693185.mvfrm
Library\Bee\artifacts\mvdfrm\UnityEngine.UmbraModule.dll_CA035B505E2DA4DC.mvfrm
Library\Bee\artifacts\mvdfrm\UnityEngine.UnityAnalyticsCommonModule.dll_C3BBE0662A5F5E6D.mvfrm
Library\Bee\artifacts\mvdfrm\UnityEngine.UnityAnalyticsModule.dll_FCA983B08DF57E72.mvfrm
Library\Bee\artifacts\mvdfrm\UnityEngine.UnityConnectModule.dll_A4FC700F1BF23206.mvfrm
Library\Bee\artifacts\mvdfrm\UnityEngine.UnityCurlModule.dll_F27670A851627024.mvfrm
Library\Bee\artifacts\mvdfrm\UnityEngine.UnityTestProtocolModule.dll_3265EA19173A9692.mvfrm
Library\Bee\artifacts\mvdfrm\UnityEngine.UnityWebRequestAssetBundleModule.dll_BB205B12BEC226C3.mvfrm
Library\Bee\artifacts\mvdfrm\UnityEngine.UnityWebRequestAudioModule.dll_A079770096E18AA7.mvfrm
Library\Bee\artifacts\mvdfrm\UnityEngine.UnityWebRequestModule.dll_80F1E94FAC2059A3.mvfrm
Library\Bee\artifacts\mvdfrm\UnityEngine.UnityWebRequestTextureModule.dll_093F2DD6C9F80B5C.mvfrm
Library\Bee\artifacts\mvdfrm\UnityEngine.UnityWebRequestWWWModule.dll_DE2C59AE2328A858.mvfrm
Library\Bee\artifacts\mvdfrm\UnityEngine.VehiclesModule.dll_690D9BCF67804D08.mvfrm
Library\Bee\artifacts\mvdfrm\UnityEngine.VFXModule.dll_14D2D5B46D4D2F1B.mvfrm
Library\Bee\artifacts\mvdfrm\UnityEngine.VideoModule.dll_743833A29399150E.mvfrm
Library\Bee\artifacts\mvdfrm\UnityEngine.VirtualTexturingModule.dll_06A92B227F38A1EE.mvfrm
Library\Bee\artifacts\mvdfrm\UnityEngine.VRModule.dll_55B32E261923B6FD.mvfrm
Library\Bee\artifacts\mvdfrm\UnityEngine.WindModule.dll_C4FFB45716C659B9.mvfrm
Library\Bee\artifacts\mvdfrm\UnityEngine.XRModule.dll_8871F12AA25E045B.mvfrm
Library\Bee\artifacts\mvdfrm\UnityEditor.WindowsStandalone.Extensions.dll_36BC6FA80EE380CB.mvfrm
Library\Bee\artifacts\mvdfrm\Unity.Plastic.Antlr3.Runtime.dll_E340043392540AF9.mvfrm
Library\Bee\artifacts\mvdfrm\Unity.Plastic.Newtonsoft.Json.dll_41CE71F42A4FD22C.mvfrm
Library\Bee\artifacts\mvdfrm\Unity.VisualScripting.IonicZip.dll_840FAE5C8A141D5B.mvfrm
Library\Bee\artifacts\mvdfrm\Unity.VisualScripting.YamlDotNet.dll_4A5905A13DE9A491.mvfrm
Library\Bee\artifacts\mvdfrm\Unity.VisualScripting.TextureAssets.dll_E1772EF4FEB70289.mvfrm
Library\Bee\artifacts\mvdfrm\Unity.VisualScripting.Antlr3.Runtime.dll_FBC62C826EB2B4B0.mvfrm