-target:library
-out:"Library/Bee/artifacts/1900b0aE.dag/Zenject.dll"
-refout:"Library/Bee/artifacts/1900b0aE.dag/Zenject.ref.dll"
-define:UNITY_2022_3_30
-define:UNITY_2022_3
-define:UNITY_2022
-define:UNITY_5_3_OR_NEWER
-define:UNITY_5_4_OR_NEWER
-define:UNITY_5_5_OR_NEWER
-define:UNITY_5_6_OR_NEWER
-define:UNITY_2017_1_OR_NEWER
-define:UNITY_2017_2_OR_NEWER
-define:UNITY_2017_3_OR_NEWER
-define:UNITY_2017_4_OR_NEWER
-define:UNITY_2018_1_OR_NEWER
-define:UNITY_2018_2_OR_NEWER
-define:UNITY_2018_3_OR_NEWER
-define:UNITY_2018_4_OR_NEWER
-define:UNITY_2019_1_OR_NEWER
-define:UNITY_2019_2_OR_NEWER
-define:UNITY_2019_3_OR_NEWER
-define:UNITY_2019_4_OR_NEWER
-define:UNITY_2020_1_OR_NEWER
-define:UNITY_2020_2_OR_NEWER
-define:UNITY_2020_3_OR_NEWER
-define:UNITY_2021_1_OR_NEWER
-define:UNITY_2021_2_OR_NEWER
-define:UNITY_2021_3_OR_NEWER
-define:UNITY_2022_1_OR_NEWER
-define:UNITY_2022_2_OR_NEWER
-define:UNITY_2022_3_OR_NEWER
-define:PLATFORM_ARCH_64
-define:UNITY_64
-define:UNITY_INCLUDE_TESTS
-define:ENABLE_AR
-define:ENABLE_AUDIO
-define:ENABLE_CACHING
-define:ENABLE_CLOTH
-define:ENABLE_EVENT_QUEUE
-define:ENABLE_MICROPHONE
-define:ENABLE_MULTIPLE_DISPLAYS
-define:ENABLE_PHYSICS
-define:ENABLE_TEXTURE_STREAMING
-define:ENABLE_VIRTUALTEXTURING
-define:ENABLE_LZMA
-define:ENABLE_UNITYEVENTS
-define:ENABLE_VR
-define:ENABLE_WEBCAM
-define:ENABLE_UNITYWEBREQUEST
-define:ENABLE_WWW
-define:ENABLE_CLOUD_SERVICES
-define:ENABLE_CLOUD_SERVICES_ADS
-define:ENABLE_CLOUD_SERVICES_USE_WEBREQUEST
-define:ENABLE_CLOUD_SERVICES_CRASH_REPORTING
-define:ENABLE_CLOUD_SERVICES_PURCHASING
-define:ENABLE_CLOUD_SERVICES_ANALYTICS
-define:ENABLE_CLOUD_SERVICES_BUILD
-define:ENABLE_EDITOR_GAME_SERVICES
-define:ENABLE_UNITY_GAME_SERVICES_ANALYTICS_SUPPORT
-define:ENABLE_CLOUD_LICENSE
-define:ENABLE_EDITOR_HUB_LICENSE
-define:ENABLE_WEBSOCKET_CLIENT
-define:ENABLE_GENERATE_NATIVE_PLUGINS_FOR_ASSEMBLIES_API
-define:ENABLE_DIRECTOR_AUDIO
-define:ENABLE_DIRECTOR_TEXTURE
-define:ENABLE_MANAGED_JOBS
-define:ENABLE_MANAGED_TRANSFORM_JOBS
-define:ENABLE_MANAGED_ANIMATION_JOBS
-define:ENABLE_MANAGED_AUDIO_JOBS
-define:ENABLE_MANAGED_UNITYTLS
-define:INCLUDE_DYNAMIC_GI
-define:ENABLE_SCRIPTING_GC_WBARRIERS
-define:PLATFORM_SUPPORTS_MONO
-define:RENDER_SOFTWARE_CURSOR
-define:ENABLE_VIDEO
-define:ENABLE_ACCELERATOR_CLIENT_DEBUGGING
-define:ENABLE_NAVIGATION_PACKAGE_DEBUG_VISUALIZATION
-define:ENABLE_NAVIGATION_HEIGHTMESH_RUNTIME_SUPPORT
-define:ENABLE_NAVIGATION_UI_REQUIRES_PACKAGE
-define:PLATFORM_STANDALONE
-define:TEXTCORE_1_0_OR_NEWER
-define:PLATFORM_STANDALONE_WIN
-define:UNITY_STANDALONE_WIN
-define:UNITY_STANDALONE
-define:ENABLE_RUNTIME_GI
-define:ENABLE_MOVIES
-define:ENABLE_NETWORK
-define:ENABLE_NVIDIA
-define:ENABLE_CRUNCH_TEXTURE_COMPRESSION
-define:ENABLE_OUT_OF_PROCESS_CRASH_HANDLER
-define:ENABLE_CLUSTER_SYNC
-define:ENABLE_CLUSTERINPUT
-define:PLATFORM_UPDATES_TIME_OUTSIDE_OF_PLAYER_LOOP
-define:GFXDEVICE_WAITFOREVENT_MESSAGEPUMP
-define:PLATFORM_INITIALIZES_MEMORY_MANAGER_EXPLICITLY
-define:ENABLE_MONO
-define:NET_STANDARD_2_0
-define:NET_STANDARD
-define:NET_STANDARD_2_1
-define:NETSTANDARD
-define:NETSTANDARD2_1
-define:ENABLE_PROFILER
-define:DEBUG
-define:TRACE
-define:UNITY_ASSERTIONS
-define:UNITY_EDITOR
-define:UNITY_EDITOR_64
-define:UNITY_EDITOR_WIN
-define:ENABLE_UNITY_COLLECTIONS_CHECKS
-define:ENABLE_BURST_AOT
-define:UNITY_TEAM_LICENSE
-define:ENABLE_CUSTOM_RENDER_TEXTURE
-define:ENABLE_DIRECTOR
-define:ENABLE_LOCALIZATION
-define:ENABLE_SPRITES
-define:ENABLE_TERRAIN
-define:ENABLE_TILEMAP
-define:ENABLE_TIMELINE
-define:ENABLE_INPUT_SYSTEM
-define:ENABLE_LEGACY_INPUT_MANAGER
-define:TEXTCORE_FONT_ENGINE_1_5_OR_NEWER
-define:CSHARP_7_OR_LATER
-define:CSHARP_7_3_OR_NEWER
-r:"Assets/Plugins/Zenject/Source/Usage/Zenject-usage.dll"
-r:"B:/Unity/2022.3.30f1/Editor/Data/Managed/UnityEditor.Graphs.dll"
-r:"B:/Unity/2022.3.30f1/Editor/Data/Managed/UnityEngine/UnityEditor.CoreModule.dll"
-r:"B:/Unity/2022.3.30f1/Editor/Data/Managed/UnityEngine/UnityEditor.DeviceSimulatorModule.dll"
-r:"B:/Unity/2022.3.30f1/Editor/Data/Managed/UnityEngine/UnityEditor.DiagnosticsModule.dll"
-r:"B:/Unity/2022.3.30f1/Editor/Data/Managed/UnityEngine/UnityEditor.dll"
-r:"B:/Unity/2022.3.30f1/Editor/Data/Managed/UnityEngine/UnityEditor.EditorToolbarModule.dll"
-r:"B:/Unity/2022.3.30f1/Editor/Data/Managed/UnityEngine/UnityEditor.GraphViewModule.dll"
-r:"B:/Unity/2022.3.30f1/Editor/Data/Managed/UnityEngine/UnityEditor.PresetsUIModule.dll"
-r:"B:/Unity/2022.3.30f1/Editor/Data/Managed/UnityEngine/UnityEditor.QuickSearchModule.dll"
-r:"B:/Unity/2022.3.30f1/Editor/Data/Managed/UnityEngine/UnityEditor.SceneTemplateModule.dll"
-r:"B:/Unity/2022.3.30f1/Editor/Data/Managed/UnityEngine/UnityEditor.SceneViewModule.dll"
-r:"B:/Unity/2022.3.30f1/Editor/Data/Managed/UnityEngine/UnityEditor.TextCoreFontEngineModule.dll"
-r:"B:/Unity/2022.3.30f1/Editor/Data/Managed/UnityEngine/UnityEditor.TextCoreTextEngineModule.dll"
-r:"B:/Unity/2022.3.30f1/Editor/Data/Managed/UnityEngine/UnityEditor.UIBuilderModule.dll"
-r:"B:/Unity/2022.3.30f1/Editor/Data/Managed/UnityEngine/UnityEditor.UIElementsModule.dll"
-r:"B:/Unity/2022.3.30f1/Editor/Data/Managed/UnityEngine/UnityEditor.UIElementsSamplesModule.dll"
-r:"B:/Unity/2022.3.30f1/Editor/Data/Managed/UnityEngine/UnityEditor.UnityConnectModule.dll"
-r:"B:/Unity/2022.3.30f1/Editor/Data/Managed/UnityEngine/UnityEngine.AccessibilityModule.dll"
-r:"B:/Unity/2022.3.30f1/Editor/Data/Managed/UnityEngine/UnityEngine.AIModule.dll"
-r:"B:/Unity/2022.3.30f1/Editor/Data/Managed/UnityEngine/UnityEngine.AndroidJNIModule.dll"
-r:"B:/Unity/2022.3.30f1/Editor/Data/Managed/UnityEngine/UnityEngine.AnimationModule.dll"
-r:"B:/Unity/2022.3.30f1/Editor/Data/Managed/UnityEngine/UnityEngine.ARModule.dll"
-r:"B:/Unity/2022.3.30f1/Editor/Data/Managed/UnityEngine/UnityEngine.AssetBundleModule.dll"
-r:"B:/Unity/2022.3.30f1/Editor/Data/Managed/UnityEngine/UnityEngine.AudioModule.dll"
-r:"B:/Unity/2022.3.30f1/Editor/Data/Managed/UnityEngine/UnityEngine.ClothModule.dll"
-r:"B:/Unity/2022.3.30f1/Editor/Data/Managed/UnityEngine/UnityEngine.ClusterInputModule.dll"
-r:"B:/Unity/2022.3.30f1/Editor/Data/Managed/UnityEngine/UnityEngine.ClusterRendererModule.dll"
-r:"B:/Unity/2022.3.30f1/Editor/Data/Managed/UnityEngine/UnityEngine.ContentLoadModule.dll"
-r:"B:/Unity/2022.3.30f1/Editor/Data/Managed/UnityEngine/UnityEngine.CoreModule.dll"
-r:"B:/Unity/2022.3.30f1/Editor/Data/Managed/UnityEngine/UnityEngine.CrashReportingModule.dll"
-r:"B:/Unity/2022.3.30f1/Editor/Data/Managed/UnityEngine/UnityEngine.DirectorModule.dll"
-r:"B:/Unity/2022.3.30f1/Editor/Data/Managed/UnityEngine/UnityEngine.dll"
-r:"B:/Unity/2022.3.30f1/Editor/Data/Managed/UnityEngine/UnityEngine.DSPGraphModule.dll"
-r:"B:/Unity/2022.3.30f1/Editor/Data/Managed/UnityEngine/UnityEngine.GameCenterModule.dll"
-r:"B:/Unity/2022.3.30f1/Editor/Data/Managed/UnityEngine/UnityEngine.GIModule.dll"
-r:"B:/Unity/2022.3.30f1/Editor/Data/Managed/UnityEngine/UnityEngine.GridModule.dll"
-r:"B:/Unity/2022.3.30f1/Editor/Data/Managed/UnityEngine/UnityEngine.HotReloadModule.dll"
-r:"B:/Unity/2022.3.30f1/Editor/Data/Managed/UnityEngine/UnityEngine.ImageConversionModule.dll"
-r:"B:/Unity/2022.3.30f1/Editor/Data/Managed/UnityEngine/UnityEngine.IMGUIModule.dll"
-r:"B:/Unity/2022.3.30f1/Editor/Data/Managed/UnityEngine/UnityEngine.InputLegacyModule.dll"
-r:"B:/Unity/2022.3.30f1/Editor/Data/Managed/UnityEngine/UnityEngine.InputModule.dll"
-r:"B:/Unity/2022.3.30f1/Editor/Data/Managed/UnityEngine/UnityEngine.JSONSerializeModule.dll"
-r:"B:/Unity/2022.3.30f1/Editor/Data/Managed/UnityEngine/UnityEngine.LocalizationModule.dll"
-r:"B:/Unity/2022.3.30f1/Editor/Data/Managed/UnityEngine/UnityEngine.ParticleSystemModule.dll"
-r:"B:/Unity/2022.3.30f1/Editor/Data/Managed/UnityEngine/UnityEngine.PerformanceReportingModule.dll"
-r:"B:/Unity/2022.3.30f1/Editor/Data/Managed/UnityEngine/UnityEngine.Physics2DModule.dll"
-r:"B:/Unity/2022.3.30f1/Editor/Data/Managed/UnityEngine/UnityEngine.PhysicsModule.dll"
-r:"B:/Unity/2022.3.30f1/Editor/Data/Managed/UnityEngine/UnityEngine.ProfilerModule.dll"
-r:"B:/Unity/2022.3.30f1/Editor/Data/Managed/UnityEngine/UnityEngine.PropertiesModule.dll"
-r:"B:/Unity/2022.3.30f1/Editor/Data/Managed/UnityEngine/UnityEngine.RuntimeInitializeOnLoadManagerInitializerModule.dll"
-r:"B:/Unity/2022.3.30f1/Editor/Data/Managed/UnityEngine/UnityEngine.ScreenCaptureModule.dll"
-r:"B:/Unity/2022.3.30f1/Editor/Data/Managed/UnityEngine/UnityEngine.SharedInternalsModule.dll"
-r:"B:/Unity/2022.3.30f1/Editor/Data/Managed/UnityEngine/UnityEngine.SpriteMaskModule.dll"
-r:"B:/Unity/2022.3.30f1/Editor/Data/Managed/UnityEngine/UnityEngine.SpriteShapeModule.dll"
-r:"B:/Unity/2022.3.30f1/Editor/Data/Managed/UnityEngine/UnityEngine.StreamingModule.dll"
-r:"B:/Unity/2022.3.30f1/Editor/Data/Managed/UnityEngine/UnityEngine.SubstanceModule.dll"
-r:"B:/Unity/2022.3.30f1/Editor/Data/Managed/UnityEngine/UnityEngine.SubsystemsModule.dll"
-r:"B:/Unity/2022.3.30f1/Editor/Data/Managed/UnityEngine/UnityEngine.TerrainModule.dll"
-r:"B:/Unity/2022.3.30f1/Editor/Data/Managed/UnityEngine/UnityEngine.TerrainPhysicsModule.dll"
-r:"B:/Unity/2022.3.30f1/Editor/Data/Managed/UnityEngine/UnityEngine.TextCoreFontEngineModule.dll"
-r:"B:/Unity/2022.3.30f1/Editor/Data/Managed/UnityEngine/UnityEngine.TextCoreTextEngineModule.dll"
-r:"B:/Unity/2022.3.30f1/Editor/Data/Managed/UnityEngine/UnityEngine.TextRenderingModule.dll"
-r:"B:/Unity/2022.3.30f1/Editor/Data/Managed/UnityEngine/UnityEngine.TilemapModule.dll"
-r:"B:/Unity/2022.3.30f1/Editor/Data/Managed/UnityEngine/UnityEngine.TLSModule.dll"
-r:"B:/Unity/2022.3.30f1/Editor/Data/Managed/UnityEngine/UnityEngine.UIElementsModule.dll"
-r:"B:/Unity/2022.3.30f1/Editor/Data/Managed/UnityEngine/UnityEngine.UIModule.dll"
-r:"B:/Unity/2022.3.30f1/Editor/Data/Managed/UnityEngine/UnityEngine.UmbraModule.dll"
-r:"B:/Unity/2022.3.30f1/Editor/Data/Managed/UnityEngine/UnityEngine.UnityAnalyticsCommonModule.dll"
-r:"B:/Unity/2022.3.30f1/Editor/Data/Managed/UnityEngine/UnityEngine.UnityAnalyticsModule.dll"
-r:"B:/Unity/2022.3.30f1/Editor/Data/Managed/UnityEngine/UnityEngine.UnityConnectModule.dll"
-r:"B:/Unity/2022.3.30f1/Editor/Data/Managed/UnityEngine/UnityEngine.UnityCurlModule.dll"
-r:"B:/Unity/2022.3.30f1/Editor/Data/Managed/UnityEngine/UnityEngine.UnityTestProtocolModule.dll"
-r:"B:/Unity/2022.3.30f1/Editor/Data/Managed/UnityEngine/UnityEngine.UnityWebRequestAssetBundleModule.dll"
-r:"B:/Unity/2022.3.30f1/Editor/Data/Managed/UnityEngine/UnityEngine.UnityWebRequestAudioModule.dll"
-r:"B:/Unity/2022.3.30f1/Editor/Data/Managed/UnityEngine/UnityEngine.UnityWebRequestModule.dll"
-r:"B:/Unity/2022.3.30f1/Editor/Data/Managed/UnityEngine/UnityEngine.UnityWebRequestTextureModule.dll"
-r:"B:/Unity/2022.3.30f1/Editor/Data/Managed/UnityEngine/UnityEngine.UnityWebRequestWWWModule.dll"
-r:"B:/Unity/2022.3.30f1/Editor/Data/Managed/UnityEngine/UnityEngine.VehiclesModule.dll"
-r:"B:/Unity/2022.3.30f1/Editor/Data/Managed/UnityEngine/UnityEngine.VFXModule.dll"
-r:"B:/Unity/2022.3.30f1/Editor/Data/Managed/UnityEngine/UnityEngine.VideoModule.dll"
-r:"B:/Unity/2022.3.30f1/Editor/Data/Managed/UnityEngine/UnityEngine.VirtualTexturingModule.dll"
-r:"B:/Unity/2022.3.30f1/Editor/Data/Managed/UnityEngine/UnityEngine.VRModule.dll"
-r:"B:/Unity/2022.3.30f1/Editor/Data/Managed/UnityEngine/UnityEngine.WindModule.dll"
-r:"B:/Unity/2022.3.30f1/Editor/Data/Managed/UnityEngine/UnityEngine.XRModule.dll"
-r:"B:/Unity/2022.3.30f1/Editor/Data/NetStandard/compat/2.1.0/shims/netfx/mscorlib.dll"
-r:"B:/Unity/2022.3.30f1/Editor/Data/NetStandard/compat/2.1.0/shims/netfx/System.ComponentModel.Composition.dll"
-r:"B:/Unity/2022.3.30f1/Editor/Data/NetStandard/compat/2.1.0/shims/netfx/System.Core.dll"
-r:"B:/Unity/2022.3.30f1/Editor/Data/NetStandard/compat/2.1.0/shims/netfx/System.Data.dll"
-r:"B:/Unity/2022.3.30f1/Editor/Data/NetStandard/compat/2.1.0/shims/netfx/System.dll"
-r:"B:/Unity/2022.3.30f1/Editor/Data/NetStandard/compat/2.1.0/shims/netfx/System.Drawing.dll"
-r:"B:/Unity/2022.3.30f1/Editor/Data/NetStandard/compat/2.1.0/shims/netfx/System.IO.Compression.FileSystem.dll"
-r:"B:/Unity/2022.3.30f1/Editor/Data/NetStandard/compat/2.1.0/shims/netfx/System.Net.dll"
-r:"B:/Unity/2022.3.30f1/Editor/Data/NetStandard/compat/2.1.0/shims/netfx/System.Numerics.dll"
-r:"B:/Unity/2022.3.30f1/Editor/Data/NetStandard/compat/2.1.0/shims/netfx/System.Runtime.Serialization.dll"
-r:"B:/Unity/2022.3.30f1/Editor/Data/NetStandard/compat/2.1.0/shims/netfx/System.ServiceModel.Web.dll"
-r:"B:/Unity/2022.3.30f1/Editor/Data/NetStandard/compat/2.1.0/shims/netfx/System.Transactions.dll"
-r:"B:/Unity/2022.3.30f1/Editor/Data/NetStandard/compat/2.1.0/shims/netfx/System.Web.dll"
-r:"B:/Unity/2022.3.30f1/Editor/Data/NetStandard/compat/2.1.0/shims/netfx/System.Windows.dll"
-r:"B:/Unity/2022.3.30f1/Editor/Data/NetStandard/compat/2.1.0/shims/netfx/System.Xml.dll"
-r:"B:/Unity/2022.3.30f1/Editor/Data/NetStandard/compat/2.1.0/shims/netfx/System.Xml.Linq.dll"
-r:"B:/Unity/2022.3.30f1/Editor/Data/NetStandard/compat/2.1.0/shims/netfx/System.Xml.Serialization.dll"
-r:"B:/Unity/2022.3.30f1/Editor/Data/NetStandard/compat/2.1.0/shims/netstandard/Microsoft.Win32.Primitives.dll"
-r:"B:/Unity/2022.3.30f1/Editor/Data/NetStandard/compat/2.1.0/shims/netstandard/System.AppContext.dll"
-r:"B:/Unity/2022.3.30f1/Editor/Data/NetStandard/compat/2.1.0/shims/netstandard/System.Buffers.dll"
-r:"B:/Unity/2022.3.30f1/Editor/Data/NetStandard/compat/2.1.0/shims/netstandard/System.Collections.Concurrent.dll"
-r:"B:/Unity/2022.3.30f1/Editor/Data/NetStandard/compat/2.1.0/shims/netstandard/System.Collections.dll"
-r:"B:/Unity/2022.3.30f1/Editor/Data/NetStandard/compat/2.1.0/shims/netstandard/System.Collections.NonGeneric.dll"
-r:"B:/Unity/2022.3.30f1/Editor/Data/NetStandard/compat/2.1.0/shims/netstandard/System.Collections.Specialized.dll"
-r:"B:/Unity/2022.3.30f1/Editor/Data/NetStandard/compat/2.1.0/shims/netstandard/System.ComponentModel.dll"
-r:"B:/Unity/2022.3.30f1/Editor/Data/NetStandard/compat/2.1.0/shims/netstandard/System.ComponentModel.EventBasedAsync.dll"
-r:"B:/Unity/2022.3.30f1/Editor/Data/NetStandard/compat/2.1.0/shims/netstandard/System.ComponentModel.Primitives.dll"
-r:"B:/Unity/2022.3.30f1/Editor/Data/NetStandard/compat/2.1.0/shims/netstandard/System.ComponentModel.TypeConverter.dll"
-r:"B:/Unity/2022.3.30f1/Editor/Data/NetStandard/compat/2.1.0/shims/netstandard/System.Console.dll"
-r:"B:/Unity/2022.3.30f1/Editor/Data/NetStandard/compat/2.1.0/shims/netstandard/System.Data.Common.dll"
-r:"B:/Unity/2022.3.30f1/Editor/Data/NetStandard/compat/2.1.0/shims/netstandard/System.Diagnostics.Contracts.dll"
-r:"B:/Unity/2022.3.30f1/Editor/Data/NetStandard/compat/2.1.0/shims/netstandard/System.Diagnostics.Debug.dll"
-r:"B:/Unity/2022.3.30f1/Editor/Data/NetStandard/compat/2.1.0/shims/netstandard/System.Diagnostics.FileVersionInfo.dll"
-r:"B:/Unity/2022.3.30f1/Editor/Data/NetStandard/compat/2.1.0/shims/netstandard/System.Diagnostics.Process.dll"
-r:"B:/Unity/2022.3.30f1/Editor/Data/NetStandard/compat/2.1.0/shims/netstandard/System.Diagnostics.StackTrace.dll"
-r:"B:/Unity/2022.3.30f1/Editor/Data/NetStandard/compat/2.1.0/shims/netstandard/System.Diagnostics.TextWriterTraceListener.dll"
-r:"B:/Unity/2022.3.30f1/Editor/Data/NetStandard/compat/2.1.0/shims/netstandard/System.Diagnostics.Tools.dll"
-r:"B:/Unity/2022.3.30f1/Editor/Data/NetStandard/compat/2.1.0/shims/netstandard/System.Diagnostics.TraceSource.dll"
-r:"B:/Unity/2022.3.30f1/Editor/Data/NetStandard/compat/2.1.0/shims/netstandard/System.Diagnostics.Tracing.dll"
-r:"B:/Unity/2022.3.30f1/Editor/Data/NetStandard/compat/2.1.0/shims/netstandard/System.Drawing.Primitives.dll"
-r:"B:/Unity/2022.3.30f1/Editor/Data/NetStandard/compat/2.1.0/shims/netstandard/System.Dynamic.Runtime.dll"
-r:"B:/Unity/2022.3.30f1/Editor/Data/NetStandard/compat/2.1.0/shims/netstandard/System.Globalization.Calendars.dll"
-r:"B:/Unity/2022.3.30f1/Editor/Data/NetStandard/compat/2.1.0/shims/netstandard/System.Globalization.dll"
-r:"B:/Unity/2022.3.30f1/Editor/Data/NetStandard/compat/2.1.0/shims/netstandard/System.Globalization.Extensions.dll"
-r:"B:/Unity/2022.3.30f1/Editor/Data/NetStandard/compat/2.1.0/shims/netstandard/System.IO.Compression.dll"
-r:"B:/Unity/2022.3.30f1/Editor/Data/NetStandard/compat/2.1.0/shims/netstandard/System.IO.Compression.ZipFile.dll"
-r:"B:/Unity/2022.3.30f1/Editor/Data/NetStandard/compat/2.1.0/shims/netstandard/System.IO.dll"
-r:"B:/Unity/2022.3.30f1/Editor/Data/NetStandard/compat/2.1.0/shims/netstandard/System.IO.FileSystem.dll"
-r:"B:/Unity/2022.3.30f1/Editor/Data/NetStandard/compat/2.1.0/shims/netstandard/System.IO.FileSystem.DriveInfo.dll"
-r:"B:/Unity/2022.3.30f1/Editor/Data/NetStandard/compat/2.1.0/shims/netstandard/System.IO.FileSystem.Primitives.dll"
-r:"B:/Unity/2022.3.30f1/Editor/Data/NetStandard/compat/2.1.0/shims/netstandard/System.IO.FileSystem.Watcher.dll"
-r:"B:/Unity/2022.3.30f1/Editor/Data/NetStandard/compat/2.1.0/shims/netstandard/System.IO.IsolatedStorage.dll"
-r:"B:/Unity/2022.3.30f1/Editor/Data/NetStandard/compat/2.1.0/shims/netstandard/System.IO.MemoryMappedFiles.dll"
-r:"B:/Unity/2022.3.30f1/Editor/Data/NetStandard/compat/2.1.0/shims/netstandard/System.IO.Pipes.dll"
-r:"B:/Unity/2022.3.30f1/Editor/Data/NetStandard/compat/2.1.0/shims/netstandard/System.IO.UnmanagedMemoryStream.dll"
-r:"B:/Unity/2022.3.30f1/Editor/Data/NetStandard/compat/2.1.0/shims/netstandard/System.Linq.dll"
-r:"B:/Unity/2022.3.30f1/Editor/Data/NetStandard/compat/2.1.0/shims/netstandard/System.Linq.Expressions.dll"
-r:"B:/Unity/2022.3.30f1/Editor/Data/NetStandard/compat/2.1.0/shims/netstandard/System.Linq.Parallel.dll"
-r:"B:/Unity/2022.3.30f1/Editor/Data/NetStandard/compat/2.1.0/shims/netstandard/System.Linq.Queryable.dll"
-r:"B:/Unity/2022.3.30f1/Editor/Data/NetStandard/compat/2.1.0/shims/netstandard/System.Memory.dll"
-r:"B:/Unity/2022.3.30f1/Editor/Data/NetStandard/compat/2.1.0/shims/netstandard/System.Net.Http.dll"
-r:"B:/Unity/2022.3.30f1/Editor/Data/NetStandard/compat/2.1.0/shims/netstandard/System.Net.NameResolution.dll"
-r:"B:/Unity/2022.3.30f1/Editor/Data/NetStandard/compat/2.1.0/shims/netstandard/System.Net.NetworkInformation.dll"
-r:"B:/Unity/2022.3.30f1/Editor/Data/NetStandard/compat/2.1.0/shims/netstandard/System.Net.Ping.dll"
-r:"B:/Unity/2022.3.30f1/Editor/Data/NetStandard/compat/2.1.0/shims/netstandard/System.Net.Primitives.dll"
-r:"B:/Unity/2022.3.30f1/Editor/Data/NetStandard/compat/2.1.0/shims/netstandard/System.Net.Requests.dll"
-r:"B:/Unity/2022.3.30f1/Editor/Data/NetStandard/compat/2.1.0/shims/netstandard/System.Net.Security.dll"
-r:"B:/Unity/2022.3.30f1/Editor/Data/NetStandard/compat/2.1.0/shims/netstandard/System.Net.Sockets.dll"
-r:"B:/Unity/2022.3.30f1/Editor/Data/NetStandard/compat/2.1.0/shims/netstandard/System.Net.WebHeaderCollection.dll"
-r:"B:/Unity/2022.3.30f1/Editor/Data/NetStandard/compat/2.1.0/shims/netstandard/System.Net.WebSockets.Client.dll"
-r:"B:/Unity/2022.3.30f1/Editor/Data/NetStandard/compat/2.1.0/shims/netstandard/System.Net.WebSockets.dll"
-r:"B:/Unity/2022.3.30f1/Editor/Data/NetStandard/compat/2.1.0/shims/netstandard/System.Numerics.Vectors.dll"
-r:"B:/Unity/2022.3.30f1/Editor/Data/NetStandard/compat/2.1.0/shims/netstandard/System.ObjectModel.dll"
-r:"B:/Unity/2022.3.30f1/Editor/Data/NetStandard/compat/2.1.0/shims/netstandard/System.Reflection.DispatchProxy.dll"
-r:"B:/Unity/2022.3.30f1/Editor/Data/NetStandard/compat/2.1.0/shims/netstandard/System.Reflection.dll"
-r:"B:/Unity/2022.3.30f1/Editor/Data/NetStandard/compat/2.1.0/shims/netstandard/System.Reflection.Emit.dll"
-r:"B:/Unity/2022.3.30f1/Editor/Data/NetStandard/compat/2.1.0/shims/netstandard/System.Reflection.Emit.ILGeneration.dll"
-r:"B:/Unity/2022.3.30f1/Editor/Data/NetStandard/compat/2.1.0/shims/netstandard/System.Reflection.Emit.Lightweight.dll"
-r:"B:/Unity/2022.3.30f1/Editor/Data/NetStandard/compat/2.1.0/shims/netstandard/System.Reflection.Extensions.dll"
-r:"B:/Unity/2022.3.30f1/Editor/Data/NetStandard/compat/2.1.0/shims/netstandard/System.Reflection.Primitives.dll"
-r:"B:/Unity/2022.3.30f1/Editor/Data/NetStandard/compat/2.1.0/shims/netstandard/System.Resources.Reader.dll"
-r:"B:/Unity/2022.3.30f1/Editor/Data/NetStandard/compat/2.1.0/shims/netstandard/System.Resources.ResourceManager.dll"
-r:"B:/Unity/2022.3.30f1/Editor/Data/NetStandard/compat/2.1.0/shims/netstandard/System.Resources.Writer.dll"
-r:"B:/Unity/2022.3.30f1/Editor/Data/NetStandard/compat/2.1.0/shims/netstandard/System.Runtime.CompilerServices.VisualC.dll"
-r:"B:/Unity/2022.3.30f1/Editor/Data/NetStandard/compat/2.1.0/shims/netstandard/System.Runtime.dll"
-r:"B:/Unity/2022.3.30f1/Editor/Data/NetStandard/compat/2.1.0/shims/netstandard/System.Runtime.Extensions.dll"
-r:"B:/Unity/2022.3.30f1/Editor/Data/NetStandard/compat/2.1.0/shims/netstandard/System.Runtime.Handles.dll"
-r:"B:/Unity/2022.3.30f1/Editor/Data/NetStandard/compat/2.1.0/shims/netstandard/System.Runtime.InteropServices.dll"
-r:"B:/Unity/2022.3.30f1/Editor/Data/NetStandard/compat/2.1.0/shims/netstandard/System.Runtime.InteropServices.RuntimeInformation.dll"
-r:"B:/Unity/2022.3.30f1/Editor/Data/NetStandard/compat/2.1.0/shims/netstandard/System.Runtime.Numerics.dll"
-r:"B:/Unity/2022.3.30f1/Editor/Data/NetStandard/compat/2.1.0/shims/netstandard/System.Runtime.Serialization.Formatters.dll"
-r:"B:/Unity/2022.3.30f1/Editor/Data/NetStandard/compat/2.1.0/shims/netstandard/System.Runtime.Serialization.Json.dll"
-r:"B:/Unity/2022.3.30f1/Editor/Data/NetStandard/compat/2.1.0/shims/netstandard/System.Runtime.Serialization.Primitives.dll"
-r:"B:/Unity/2022.3.30f1/Editor/Data/NetStandard/compat/2.1.0/shims/netstandard/System.Runtime.Serialization.Xml.dll"
-r:"B:/Unity/2022.3.30f1/Editor/Data/NetStandard/compat/2.1.0/shims/netstandard/System.Security.Claims.dll"
-r:"B:/Unity/2022.3.30f1/Editor/Data/NetStandard/compat/2.1.0/shims/netstandard/System.Security.Cryptography.Algorithms.dll"
-r:"B:/Unity/2022.3.30f1/Editor/Data/NetStandard/compat/2.1.0/shims/netstandard/System.Security.Cryptography.Csp.dll"
-r:"B:/Unity/2022.3.30f1/Editor/Data/NetStandard/compat/2.1.0/shims/netstandard/System.Security.Cryptography.Encoding.dll"
-r:"B:/Unity/2022.3.30f1/Editor/Data/NetStandard/compat/2.1.0/shims/netstandard/System.Security.Cryptography.Primitives.dll"
-r:"B:/Unity/2022.3.30f1/Editor/Data/NetStandard/compat/2.1.0/shims/netstandard/System.Security.Cryptography.X509Certificates.dll"
-r:"B:/Unity/2022.3.30f1/Editor/Data/NetStandard/compat/2.1.0/shims/netstandard/System.Security.Principal.dll"
-r:"B:/Unity/2022.3.30f1/Editor/Data/NetStandard/compat/2.1.0/shims/netstandard/System.Security.SecureString.dll"
-r:"B:/Unity/2022.3.30f1/Editor/Data/NetStandard/compat/2.1.0/shims/netstandard/System.Text.Encoding.dll"
-r:"B:/Unity/2022.3.30f1/Editor/Data/NetStandard/compat/2.1.0/shims/netstandard/System.Text.Encoding.Extensions.dll"
-r:"B:/Unity/2022.3.30f1/Editor/Data/NetStandard/compat/2.1.0/shims/netstandard/System.Text.RegularExpressions.dll"
-r:"B:/Unity/2022.3.30f1/Editor/Data/NetStandard/compat/2.1.0/shims/netstandard/System.Threading.dll"
-r:"B:/Unity/2022.3.30f1/Editor/Data/NetStandard/compat/2.1.0/shims/netstandard/System.Threading.Overlapped.dll"
-r:"B:/Unity/2022.3.30f1/Editor/Data/NetStandard/compat/2.1.0/shims/netstandard/System.Threading.Tasks.dll"
-r:"B:/Unity/2022.3.30f1/Editor/Data/NetStandard/compat/2.1.0/shims/netstandard/System.Threading.Tasks.Extensions.dll"
-r:"B:/Unity/2022.3.30f1/Editor/Data/NetStandard/compat/2.1.0/shims/netstandard/System.Threading.Tasks.Parallel.dll"
-r:"B:/Unity/2022.3.30f1/Editor/Data/NetStandard/compat/2.1.0/shims/netstandard/System.Threading.Thread.dll"
-r:"B:/Unity/2022.3.30f1/Editor/Data/NetStandard/compat/2.1.0/shims/netstandard/System.Threading.ThreadPool.dll"
-r:"B:/Unity/2022.3.30f1/Editor/Data/NetStandard/compat/2.1.0/shims/netstandard/System.Threading.Timer.dll"
-r:"B:/Unity/2022.3.30f1/Editor/Data/NetStandard/compat/2.1.0/shims/netstandard/System.ValueTuple.dll"
-r:"B:/Unity/2022.3.30f1/Editor/Data/NetStandard/compat/2.1.0/shims/netstandard/System.Xml.ReaderWriter.dll"
-r:"B:/Unity/2022.3.30f1/Editor/Data/NetStandard/compat/2.1.0/shims/netstandard/System.Xml.XDocument.dll"
-r:"B:/Unity/2022.3.30f1/Editor/Data/NetStandard/compat/2.1.0/shims/netstandard/System.Xml.XmlDocument.dll"
-r:"B:/Unity/2022.3.30f1/Editor/Data/NetStandard/compat/2.1.0/shims/netstandard/System.Xml.XmlSerializer.dll"
-r:"B:/Unity/2022.3.30f1/Editor/Data/NetStandard/compat/2.1.0/shims/netstandard/System.Xml.XPath.dll"
-r:"B:/Unity/2022.3.30f1/Editor/Data/NetStandard/compat/2.1.0/shims/netstandard/System.Xml.XPath.XDocument.dll"
-r:"B:/Unity/2022.3.30f1/Editor/Data/NetStandard/Extensions/2.0.0/System.Runtime.InteropServices.WindowsRuntime.dll"
-r:"B:/Unity/2022.3.30f1/Editor/Data/NetStandard/ref/2.1.0/netstandard.dll"
-r:"B:/Unity/2022.3.30f1/Editor/Data/PlaybackEngines/WindowsStandaloneSupport/UnityEditor.WindowsStandalone.Extensions.dll"
-r:"Library/PackageCache/com.unity.collab-proxy@2.3.1/Lib/Editor/PlasticSCM/log4netPlastic.dll"
-r:"Library/PackageCache/com.unity.collab-proxy@2.3.1/Lib/Editor/PlasticSCM/Unity.Plastic.Antlr3.Runtime.dll"
-r:"Library/PackageCache/com.unity.collab-proxy@2.3.1/Lib/Editor/PlasticSCM/Unity.Plastic.Newtonsoft.Json.dll"
-r:"Library/PackageCache/com.unity.collab-proxy@2.3.1/Lib/Editor/PlasticSCM/unityplastic.dll"
-r:"Library/PackageCache/com.unity.testtools.codecoverage@1.2.5/lib/ReportGenerator/ReportGeneratorMerged.dll"
-r:"Library/PackageCache/com.unity.visualscripting@1.9.4/Editor/VisualScripting.Core/Dependencies/DotNetZip/Unity.VisualScripting.IonicZip.dll"
-r:"Library/PackageCache/com.unity.visualscripting@1.9.4/Editor/VisualScripting.Core/Dependencies/YamlDotNet/Unity.VisualScripting.YamlDotNet.dll"
-r:"Library/PackageCache/com.unity.visualscripting@1.9.4/Editor/VisualScripting.Core/EditorAssetResources/Unity.VisualScripting.TextureAssets.dll"
-r:"Library/PackageCache/com.unity.visualscripting@1.9.4/Runtime/VisualScripting.Flow/Dependencies/NCalc/Unity.VisualScripting.Antlr3.Runtime.dll"
-r:"Library/Bee/artifacts/1900b0aE.dag/UnityEditor.UI.ref.dll"
-r:"Library/Bee/artifacts/1900b0aE.dag/UnityEngine.UI.ref.dll"
-analyzer:"B:/Unity/2022.3.30f1/Editor/Data/Tools/Unity.SourceGenerators/Unity.Properties.SourceGenerator.dll"
-analyzer:"B:/Unity/2022.3.30f1/Editor/Data/Tools/Unity.SourceGenerators/Unity.SourceGenerators.dll"
"Assets/Plugins/Zenject/Source/Binding/Binders/ArgConditionCopyNonLazyBinder.cs"
"Assets/Plugins/Zenject/Source/Binding/Binders/ConcreteBinders/ConcreteBinderGeneric.cs"
"Assets/Plugins/Zenject/Source/Binding/Binders/ConcreteBinders/ConcreteBinderNonGeneric.cs"
"Assets/Plugins/Zenject/Source/Binding/Binders/ConcreteBinders/ConcreteIdBinderGeneric.cs"
"Assets/Plugins/Zenject/Source/Binding/Binders/ConcreteBinders/ConcreteIdBinderNonGeneric.cs"
"Assets/Plugins/Zenject/Source/Binding/Binders/ConcreteIdArgConditionCopyNonLazyBinder.cs"
"Assets/Plugins/Zenject/Source/Binding/Binders/ConditionCopyNonLazyBinder.cs"
"Assets/Plugins/Zenject/Source/Binding/Binders/Conventions/ConventionAssemblySelectionBinder.cs"
"Assets/Plugins/Zenject/Source/Binding/Binders/Conventions/ConventionBindInfo.cs"
"Assets/Plugins/Zenject/Source/Binding/Binders/Conventions/ConventionFilterTypesBinder.cs"
"Assets/Plugins/Zenject/Source/Binding/Binders/Conventions/ConventionSelectTypesBinder.cs"
"Assets/Plugins/Zenject/Source/Binding/Binders/CopyNonLazyBinder.cs"
"Assets/Plugins/Zenject/Source/Binding/Binders/DefaultParentScopeConcreteIdArgConditionCopyNonLazyBinder.cs"
"Assets/Plugins/Zenject/Source/Binding/Binders/Factory/FactoryArgumentsToChoiceBinder/FactoryArgumentsToChoiceBinder0.cs"
"Assets/Plugins/Zenject/Source/Binding/Binders/Factory/FactoryArgumentsToChoiceBinder/FactoryArgumentsToChoiceBinder1.cs"
"Assets/Plugins/Zenject/Source/Binding/Binders/Factory/FactoryArgumentsToChoiceBinder/FactoryArgumentsToChoiceBinder10.cs"
"Assets/Plugins/Zenject/Source/Binding/Binders/Factory/FactoryArgumentsToChoiceBinder/FactoryArgumentsToChoiceBinder2.cs"
"Assets/Plugins/Zenject/Source/Binding/Binders/Factory/FactoryArgumentsToChoiceBinder/FactoryArgumentsToChoiceBinder3.cs"
"Assets/Plugins/Zenject/Source/Binding/Binders/Factory/FactoryArgumentsToChoiceBinder/FactoryArgumentsToChoiceBinder4.cs"
"Assets/Plugins/Zenject/Source/Binding/Binders/Factory/FactoryArgumentsToChoiceBinder/FactoryArgumentsToChoiceBinder5.cs"
"Assets/Plugins/Zenject/Source/Binding/Binders/Factory/FactoryArgumentsToChoiceBinder/FactoryArgumentsToChoiceBinder6.cs"
"Assets/Plugins/Zenject/Source/Binding/Binders/Factory/FactoryFromBinder/FactoryFromBinder0.cs"
"Assets/Plugins/Zenject/Source/Binding/Binders/Factory/FactoryFromBinder/FactoryFromBinder1.cs"
"Assets/Plugins/Zenject/Source/Binding/Binders/Factory/FactoryFromBinder/FactoryFromBinder10.cs"
"Assets/Plugins/Zenject/Source/Binding/Binders/Factory/FactoryFromBinder/FactoryFromBinder2.cs"
"Assets/Plugins/Zenject/Source/Binding/Binders/Factory/FactoryFromBinder/FactoryFromBinder3.cs"
"Assets/Plugins/Zenject/Source/Binding/Binders/Factory/FactoryFromBinder/FactoryFromBinder4.cs"
"Assets/Plugins/Zenject/Source/Binding/Binders/Factory/FactoryFromBinder/FactoryFromBinder5.cs"
"Assets/Plugins/Zenject/Source/Binding/Binders/Factory/FactoryFromBinder/FactoryFromBinder6.cs"
"Assets/Plugins/Zenject/Source/Binding/Binders/Factory/FactoryFromBinder/SubContainerBinder/FactorySubContainerBinder0.cs"
"Assets/Plugins/Zenject/Source/Binding/Binders/Factory/FactoryFromBinder/SubContainerBinder/FactorySubContainerBinder1.cs"
"Assets/Plugins/Zenject/Source/Binding/Binders/Factory/FactoryFromBinder/SubContainerBinder/FactorySubContainerBinder10.cs"
"Assets/Plugins/Zenject/Source/Binding/Binders/Factory/FactoryFromBinder/SubContainerBinder/FactorySubContainerBinder2.cs"
"Assets/Plugins/Zenject/Source/Binding/Binders/Factory/FactoryFromBinder/SubContainerBinder/FactorySubContainerBinder3.cs"
"Assets/Plugins/Zenject/Source/Binding/Binders/Factory/FactoryFromBinder/SubContainerBinder/FactorySubContainerBinder4.cs"
"Assets/Plugins/Zenject/Source/Binding/Binders/Factory/FactoryFromBinder/SubContainerBinder/FactorySubContainerBinder5.cs"
"Assets/Plugins/Zenject/Source/Binding/Binders/Factory/FactoryFromBinder/SubContainerBinder/FactorySubContainerBinder6.cs"
"Assets/Plugins/Zenject/Source/Binding/Binders/Factory/FactoryFromBinder/SubContainerBinder/FactorySubContainerBinderBase.cs"
"Assets/Plugins/Zenject/Source/Binding/Binders/Factory/FactoryFromBinder/SubContainerBinder/FactorySubContainerBinderWithParams.cs"
"Assets/Plugins/Zenject/Source/Binding/Binders/Factory/FactoryFromBinder/Untyped/FactoryFromBinderUntyped.cs"
"Assets/Plugins/Zenject/Source/Binding/Binders/Factory/FactoryFromBinderBase.cs"
"Assets/Plugins/Zenject/Source/Binding/Binders/Factory/FactoryToChoiceBinder/DecoratorToChoiceFromBinder.cs"
"Assets/Plugins/Zenject/Source/Binding/Binders/Factory/FactoryToChoiceBinder/FactoryToChoiceBinder0.cs"
"Assets/Plugins/Zenject/Source/Binding/Binders/Factory/FactoryToChoiceBinder/FactoryToChoiceBinder1.cs"
"Assets/Plugins/Zenject/Source/Binding/Binders/Factory/FactoryToChoiceBinder/FactoryToChoiceBinder10.cs"
"Assets/Plugins/Zenject/Source/Binding/Binders/Factory/FactoryToChoiceBinder/FactoryToChoiceBinder2.cs"
"Assets/Plugins/Zenject/Source/Binding/Binders/Factory/FactoryToChoiceBinder/FactoryToChoiceBinder3.cs"
"Assets/Plugins/Zenject/Source/Binding/Binders/Factory/FactoryToChoiceBinder/FactoryToChoiceBinder4.cs"
"Assets/Plugins/Zenject/Source/Binding/Binders/Factory/FactoryToChoiceBinder/FactoryToChoiceBinder5.cs"
"Assets/Plugins/Zenject/Source/Binding/Binders/Factory/FactoryToChoiceBinder/FactoryToChoiceBinder6.cs"
"Assets/Plugins/Zenject/Source/Binding/Binders/Factory/FactoryToChoiceIdBinder/FactoryToChoiceIdBinder0.cs"
"Assets/Plugins/Zenject/Source/Binding/Binders/Factory/FactoryToChoiceIdBinder/FactoryToChoiceIdBinder1.cs"
"Assets/Plugins/Zenject/Source/Binding/Binders/Factory/FactoryToChoiceIdBinder/FactoryToChoiceIdBinder10.cs"
"Assets/Plugins/Zenject/Source/Binding/Binders/Factory/FactoryToChoiceIdBinder/FactoryToChoiceIdBinder2.cs"
"Assets/Plugins/Zenject/Source/Binding/Binders/Factory/FactoryToChoiceIdBinder/FactoryToChoiceIdBinder3.cs"
"Assets/Plugins/Zenject/Source/Binding/Binders/Factory/FactoryToChoiceIdBinder/FactoryToChoiceIdBinder4.cs"
"Assets/Plugins/Zenject/Source/Binding/Binders/Factory/FactoryToChoiceIdBinder/FactoryToChoiceIdBinder5.cs"
"Assets/Plugins/Zenject/Source/Binding/Binders/Factory/FactoryToChoiceIdBinder/FactoryToChoiceIdBinder6.cs"
"Assets/Plugins/Zenject/Source/Binding/Binders/Factory/PlaceholderFactoryBindingFinalizer.cs"
"Assets/Plugins/Zenject/Source/Binding/Binders/Factory/Pooling/MemoryPoolBindingFinalizer.cs"
"Assets/Plugins/Zenject/Source/Binding/Binders/Factory/Pooling/MemoryPoolExpandBinder.cs"
"Assets/Plugins/Zenject/Source/Binding/Binders/Factory/Pooling/MemoryPoolInitialSizeBinder.cs"
"Assets/Plugins/Zenject/Source/Binding/Binders/FromBinders/FromBinder.cs"
"Assets/Plugins/Zenject/Source/Binding/Binders/FromBinders/FromBinderGeneric.cs"
"Assets/Plugins/Zenject/Source/Binding/Binders/FromBinders/FromBinderNonGeneric.cs"
"Assets/Plugins/Zenject/Source/Binding/Binders/GameObject/NameTransformScopeConcreteIdArgConditionCopyNonLazyBinder.cs"
"Assets/Plugins/Zenject/Source/Binding/Binders/GameObject/TransformScopeConcreteIdArgConditionCopyNonLazyBinder.cs"
"Assets/Plugins/Zenject/Source/Binding/Binders/IdBinder.cs"
"Assets/Plugins/Zenject/Source/Binding/Binders/IdScopeConcreteIdArgConditionCopyNonLazyBinder.cs"
"Assets/Plugins/Zenject/Source/Binding/Binders/IfNotBoundBinder.cs"
"Assets/Plugins/Zenject/Source/Binding/Binders/InstantiateCallbackConditionCopyNonLazyBinder.cs"
"Assets/Plugins/Zenject/Source/Binding/Binders/NonLazyBinder.cs"
"Assets/Plugins/Zenject/Source/Binding/Binders/ScopeConcreteIdArgConditionCopyNonLazyBinder.cs"
"Assets/Plugins/Zenject/Source/Binding/Binders/SubContainerBinder.cs"
"Assets/Plugins/Zenject/Source/Binding/Binders/WithKernelDefaultParentScopeConcreteIdArgConditionCopyNonLazyBinder.cs"
"Assets/Plugins/Zenject/Source/Binding/Binders/WithKernelScopeConcreteIdArgConditionCopyNonLazyBinder.cs"
"Assets/Plugins/Zenject/Source/Binding/BindInfo/BindInfo.cs"
"Assets/Plugins/Zenject/Source/Binding/BindInfo/BindStatement.cs"
"Assets/Plugins/Zenject/Source/Binding/BindInfo/FactoryBindInfo.cs"
"Assets/Plugins/Zenject/Source/Binding/BindInfo/GameObjectCreationParameters.cs"
"Assets/Plugins/Zenject/Source/Binding/BindInfo/MemoryPoolBindInfo.cs"
"Assets/Plugins/Zenject/Source/Binding/BindingUtil.cs"
"Assets/Plugins/Zenject/Source/Binding/Finalizers/IBindingFinalizer.cs"
"Assets/Plugins/Zenject/Source/Binding/Finalizers/NullBindingFinalizer.cs"
"Assets/Plugins/Zenject/Source/Binding/Finalizers/PrefabBindingFinalizer.cs"
"Assets/Plugins/Zenject/Source/Binding/Finalizers/PrefabResourceBindingFinalizer.cs"
"Assets/Plugins/Zenject/Source/Binding/Finalizers/ProviderBindingFinalizer.cs"
"Assets/Plugins/Zenject/Source/Binding/Finalizers/ScopableBindingFinalizer.cs"
"Assets/Plugins/Zenject/Source/Binding/Finalizers/SingleProviderBindingFinalizer.cs"
"Assets/Plugins/Zenject/Source/Binding/Finalizers/SubContainerBindingFinalizer.cs"
"Assets/Plugins/Zenject/Source/Binding/Finalizers/SubContainerPrefabBindingFinalizer.cs"
"Assets/Plugins/Zenject/Source/Factories/FactoryProviderWrapper.cs"
"Assets/Plugins/Zenject/Source/Factories/IFactory.cs"
"Assets/Plugins/Zenject/Source/Factories/KeyedFactory.cs"
"Assets/Plugins/Zenject/Source/Factories/PlaceholderFactory.cs"
"Assets/Plugins/Zenject/Source/Factories/PlaceholderFactoryBase.cs"
"Assets/Plugins/Zenject/Source/Factories/Pooling/IMemoryPool.cs"
"Assets/Plugins/Zenject/Source/Factories/Pooling/MemoryPool.cs"
"Assets/Plugins/Zenject/Source/Factories/Pooling/MemoryPoolBase.cs"
"Assets/Plugins/Zenject/Source/Factories/Pooling/MonoMemoryPool.cs"
"Assets/Plugins/Zenject/Source/Factories/Pooling/MonoPoolableMemoryPool.cs"
"Assets/Plugins/Zenject/Source/Factories/Pooling/PoolableMemoryPool.cs"
"Assets/Plugins/Zenject/Source/Factories/Pooling/PoolFactory.cs"
"Assets/Plugins/Zenject/Source/Factories/Pooling/Static/PoolableStaticMemoryPool.cs"
"Assets/Plugins/Zenject/Source/Factories/Pooling/Static/StaticMemoryPool.cs"
"Assets/Plugins/Zenject/Source/Factories/Pooling/Util/ArrayPool.cs"
"Assets/Plugins/Zenject/Source/Factories/Pooling/Util/DictionaryPool.cs"
"Assets/Plugins/Zenject/Source/Factories/Pooling/Util/HashSetPool.cs"
"Assets/Plugins/Zenject/Source/Factories/Pooling/Util/ListPool.cs"
"Assets/Plugins/Zenject/Source/Factories/Pooling/Util/PoolCleanupChecker.cs"
"Assets/Plugins/Zenject/Source/Factories/Pooling/Util/StaticMemoryPoolRegistry.cs"
"Assets/Plugins/Zenject/Source/Factories/PrefabFactory.cs"
"Assets/Plugins/Zenject/Source/Factories/PrefabResourceFactory.cs"
"Assets/Plugins/Zenject/Source/Injection/InjectContext.cs"
"Assets/Plugins/Zenject/Source/Injection/InjectUtil.cs"
"Assets/Plugins/Zenject/Source/Injection/LazyInject.cs"
"Assets/Plugins/Zenject/Source/Install/Contexts/Context.cs"
"Assets/Plugins/Zenject/Source/Install/Contexts/GameObjectContext.cs"
"Assets/Plugins/Zenject/Source/Install/Contexts/ProjectContext.cs"
"Assets/Plugins/Zenject/Source/Install/Contexts/RunnableContext.cs"
"Assets/Plugins/Zenject/Source/Install/Contexts/SceneContext.cs"
"Assets/Plugins/Zenject/Source/Install/Contexts/SceneDecoratorContext.cs"
"Assets/Plugins/Zenject/Source/Install/Contexts/StaticContext.cs"
"Assets/Plugins/Zenject/Source/Install/IInstaller.cs"
"Assets/Plugins/Zenject/Source/Install/Installer.cs"
"Assets/Plugins/Zenject/Source/Install/InstallerBase.cs"
"Assets/Plugins/Zenject/Source/Install/MonoInstaller.cs"
"Assets/Plugins/Zenject/Source/Install/MonoInstallerBase.cs"
"Assets/Plugins/Zenject/Source/Install/ScriptableObjectInstaller.cs"
"Assets/Plugins/Zenject/Source/Install/ScriptableObjectInstallerBase.cs"
"Assets/Plugins/Zenject/Source/Install/ZenjectBinding.cs"
"Assets/Plugins/Zenject/Source/Install/ZenjectManagersInstaller.cs"
"Assets/Plugins/Zenject/Source/Internal/Assert.cs"
"Assets/Plugins/Zenject/Source/Internal/Func.cs"
"Assets/Plugins/Zenject/Source/Internal/LinqExtensions.cs"
"Assets/Plugins/Zenject/Source/Internal/Log.cs"
"Assets/Plugins/Zenject/Source/Internal/MiscExtensions.cs"
"Assets/Plugins/Zenject/Source/Internal/PreserveAttribute.cs"
"Assets/Plugins/Zenject/Source/Internal/TypeExtensions.cs"
"Assets/Plugins/Zenject/Source/Internal/TypeStringFormatter.cs"
"Assets/Plugins/Zenject/Source/Internal/ValuePair.cs"
"Assets/Plugins/Zenject/Source/Main/BindingId.cs"
"Assets/Plugins/Zenject/Source/Main/DiContainer.cs"
"Assets/Plugins/Zenject/Source/Main/IInstantiator.cs"
"Assets/Plugins/Zenject/Source/Main/LazyInstanceInjector.cs"
"Assets/Plugins/Zenject/Source/Main/LookupId.cs"
"Assets/Plugins/Zenject/Source/Main/SingletonMarkRegistry.cs"
"Assets/Plugins/Zenject/Source/Main/ZenjectSettings.cs"
"Assets/Plugins/Zenject/Source/Providers/CachedOpenTypeProvider.cs"
"Assets/Plugins/Zenject/Source/Providers/CachedProvider.cs"
"Assets/Plugins/Zenject/Source/Providers/ComponentProviders/AddToGameObjectComponentProviders/AddToCurrentGameObjectComponentProvider.cs"
"Assets/Plugins/Zenject/Source/Providers/ComponentProviders/AddToGameObjectComponentProviders/AddToExistingGameObjectComponentProvider.cs"
"Assets/Plugins/Zenject/Source/Providers/ComponentProviders/AddToGameObjectComponentProviders/AddToGameObjectComponentProviderBase.cs"
"Assets/Plugins/Zenject/Source/Providers/ComponentProviders/AddToGameObjectComponentProviders/AddToNewGameObjectComponentProvider.cs"
"Assets/Plugins/Zenject/Source/Providers/ComponentProviders/GetFromGameObjectComponentProvider.cs"
"Assets/Plugins/Zenject/Source/Providers/ComponentProviders/GetFromGameObjectGetterComponentProvider.cs"
"Assets/Plugins/Zenject/Source/Providers/ComponentProviders/GetFromPrefabComponentProvider.cs"
"Assets/Plugins/Zenject/Source/Providers/ComponentProviders/InstantiateOnPrefabComponentProvider.cs"
"Assets/Plugins/Zenject/Source/Providers/Decorator/DecoratorProvider.cs"
"Assets/Plugins/Zenject/Source/Providers/GameObjectProviders/EmptyGameObjectProvider.cs"
"Assets/Plugins/Zenject/Source/Providers/GameObjectProviders/PrefabGameObjectProvider.cs"
"Assets/Plugins/Zenject/Source/Providers/GetterProvider.cs"
"Assets/Plugins/Zenject/Source/Providers/IFactoryProvider.cs"
"Assets/Plugins/Zenject/Source/Providers/InstanceProvider.cs"
"Assets/Plugins/Zenject/Source/Providers/IProvider.cs"
"Assets/Plugins/Zenject/Source/Providers/IProviderExtensions.cs"
"Assets/Plugins/Zenject/Source/Providers/MethodMultipleProviderUntyped.cs"
"Assets/Plugins/Zenject/Source/Providers/MethodProvider.cs"
"Assets/Plugins/Zenject/Source/Providers/MethodProviderMultiple.cs"
"Assets/Plugins/Zenject/Source/Providers/MethodProviderSimple.cs"
"Assets/Plugins/Zenject/Source/Providers/MethodProviderUntyped.cs"
"Assets/Plugins/Zenject/Source/Providers/MethodProviderWithContainer.cs"
"Assets/Plugins/Zenject/Source/Providers/PoolableMemoryPoolProvider.cs"
"Assets/Plugins/Zenject/Source/Providers/PrefabCreators/IPrefabInstantiator.cs"
"Assets/Plugins/Zenject/Source/Providers/PrefabCreators/PrefabInstantiator.cs"
"Assets/Plugins/Zenject/Source/Providers/PrefabCreators/PrefabInstantiatorCached.cs"
"Assets/Plugins/Zenject/Source/Providers/PrefabProviders/IPrefabProvider.cs"
"Assets/Plugins/Zenject/Source/Providers/PrefabProviders/PrefabProvider.cs"
"Assets/Plugins/Zenject/Source/Providers/PrefabProviders/PrefabProviderCustom.cs"
"Assets/Plugins/Zenject/Source/Providers/PrefabProviders/PrefabProviderResource.cs"
"Assets/Plugins/Zenject/Source/Providers/ProviderUtil.cs"
"Assets/Plugins/Zenject/Source/Providers/ResolveProvider.cs"
"Assets/Plugins/Zenject/Source/Providers/ResourceProvider.cs"
"Assets/Plugins/Zenject/Source/Providers/ScriptableObjectInstanceProvider.cs"
"Assets/Plugins/Zenject/Source/Providers/ScriptableObjectResourceProvider.cs"
"Assets/Plugins/Zenject/Source/Providers/SubContainerCreators/ISubContainerCreator.cs"
"Assets/Plugins/Zenject/Source/Providers/SubContainerCreators/SubContainerCreatorBindInfo.cs"
"Assets/Plugins/Zenject/Source/Providers/SubContainerCreators/SubContainerCreatorByInstaller.cs"
"Assets/Plugins/Zenject/Source/Providers/SubContainerCreators/SubContainerCreatorByInstance.cs"
"Assets/Plugins/Zenject/Source/Providers/SubContainerCreators/SubContainerCreatorByInstanceGetter.cs"
"Assets/Plugins/Zenject/Source/Providers/SubContainerCreators/SubContainerCreatorByMethod.cs"
"Assets/Plugins/Zenject/Source/Providers/SubContainerCreators/SubContainerCreatorByNewGameObjectDynamicContext.cs"
"Assets/Plugins/Zenject/Source/Providers/SubContainerCreators/SubContainerCreatorByNewPrefab.cs"
"Assets/Plugins/Zenject/Source/Providers/SubContainerCreators/SubContainerCreatorByNewPrefabDynamicContext.cs"
"Assets/Plugins/Zenject/Source/Providers/SubContainerCreators/SubContainerCreatorByNewPrefabWithParams.cs"
"Assets/Plugins/Zenject/Source/Providers/SubContainerCreators/SubContainerCreatorCached.cs"
"Assets/Plugins/Zenject/Source/Providers/SubContainerCreators/SubContainerCreatorDynamicContext.cs"
"Assets/Plugins/Zenject/Source/Providers/SubContainerCreators/SubContainerCreatorUtil.cs"
"Assets/Plugins/Zenject/Source/Providers/SubContainerDependencyProvider.cs"
"Assets/Plugins/Zenject/Source/Providers/TransientProvider.cs"
"Assets/Plugins/Zenject/Source/Runtime/AnimatorInterfaces/AnimatorIkHandlerManager.cs"
"Assets/Plugins/Zenject/Source/Runtime/AnimatorInterfaces/AnimatorInstaller.cs"
"Assets/Plugins/Zenject/Source/Runtime/AnimatorInterfaces/AnimatorMoveHandlerManager.cs"
"Assets/Plugins/Zenject/Source/Runtime/AnimatorInterfaces/IAnimatorIkHandler.cs"
"Assets/Plugins/Zenject/Source/Runtime/AnimatorInterfaces/IAnimatorMoveHandler.cs"
"Assets/Plugins/Zenject/Source/Runtime/DisposableManager.cs"
"Assets/Plugins/Zenject/Source/Runtime/GuiRenderableManager.cs"
"Assets/Plugins/Zenject/Source/Runtime/GuiRenderer.cs"
"Assets/Plugins/Zenject/Source/Runtime/InitializableManager.cs"
"Assets/Plugins/Zenject/Source/Runtime/Kernels/DecoratableMonoKernel.cs"
"Assets/Plugins/Zenject/Source/Runtime/Kernels/DefaultGameObjectKernel.cs"
"Assets/Plugins/Zenject/Source/Runtime/Kernels/Kernel.cs"
"Assets/Plugins/Zenject/Source/Runtime/Kernels/MonoKernel.cs"
"Assets/Plugins/Zenject/Source/Runtime/Kernels/ProjectKernel.cs"
"Assets/Plugins/Zenject/Source/Runtime/Kernels/SceneKernel.cs"
"Assets/Plugins/Zenject/Source/Runtime/PoolableManager.cs"
"Assets/Plugins/Zenject/Source/Runtime/SceneContextRegistry.cs"
"Assets/Plugins/Zenject/Source/Runtime/SceneContextRegistryAdderAndRemover.cs"
"Assets/Plugins/Zenject/Source/Runtime/TaskUpdater.cs"
"Assets/Plugins/Zenject/Source/Runtime/TickableManager.cs"
"Assets/Plugins/Zenject/Source/Util/ActionInstaller.cs"
"Assets/Plugins/Zenject/Source/Util/CheatSheet.cs"
"Assets/Plugins/Zenject/Source/Util/DefaultGameObjectParentInstaller.cs"
"Assets/Plugins/Zenject/Source/Util/DisposeBlock.cs"
"Assets/Plugins/Zenject/Source/Util/ExecutionOrderInstaller.cs"
"Assets/Plugins/Zenject/Source/Util/ProfileBlock.cs"
"Assets/Plugins/Zenject/Source/Util/ProfileTimers.cs"
"Assets/Plugins/Zenject/Source/Util/ReflectionInfoTypeInfoConverter.cs"
"Assets/Plugins/Zenject/Source/Util/ReflectionTypeInfo.cs"
"Assets/Plugins/Zenject/Source/Util/ReflectionUtil.cs"
"Assets/Plugins/Zenject/Source/Util/TypeAnalyzer.cs"
"Assets/Plugins/Zenject/Source/Util/UnityUtil.cs"
"Assets/Plugins/Zenject/Source/Util/ValidationUtil.cs"
"Assets/Plugins/Zenject/Source/Util/ZenAutoInjecter.cs"
"Assets/Plugins/Zenject/Source/Util/ZenjectException.cs"
"Assets/Plugins/Zenject/Source/Util/ZenjectSceneLoader.cs"
"Assets/Plugins/Zenject/Source/Util/ZenjectStateMachineBehaviourAutoInjecter.cs"
"Assets/Plugins/Zenject/Source/Util/ZenPools.cs"
"Assets/Plugins/Zenject/Source/Util/ZenReflectionTypeAnalyzer.cs"
"Assets/Plugins/Zenject/Source/Util/ZenUtilInternal.cs"
"Assets/Plugins/Zenject/Source/Validation/IValidatable.cs"
"Assets/Plugins/Zenject/Source/Validation/ValidationMarker.cs"
-langversion:9.0
/deterministic
/optimize+
/debug:portable
/nologo
/RuntimeMetadataVersion:v4.0.30319
/nowarn:0169
/nowarn:0649
/nowarn:0282
/nowarn:1701
/nowarn:1702
/utf8output
/preferreduilang:en-US
/additionalfile:"Library/Bee/artifacts/1900b0aE.dag/Zenject.UnityAdditionalFile.txt"